{
	"info": {
		"_postman_id": "929f2c13-f0b7-4989-bbc8-8d3c0563f7e0",
		"name": "Cadastro",
		"schema": "https://schema.getpostman.com/json/collection/v2.1.0/collection.json"
	},
	"item": [
		{
			"name": "Cadastrar Aluno",
			"request": {
				"method": "POST",
				"header": [],
				"body": {
					"mode": "raw",
					"raw": "{\r\n  \"email\": \"fulano@gmail.com\",\r\n  \"idade\": 30,\r\n  \"nome\": \"Fulano de Tal\"\r\n}",
					"options": {
						"raw": {
							"language": "json"
						}
					}
				},
				"url": {
					"raw": "http://127.0.0.1/cadastro/api/aluno",
					"protocol": "http",
					"host": [
						"127",
						"0",
						"0",
						"1"
					],
					"path": [
						"cadastro",
						"api",
						"aluno"
					]
				}
			},
			"response": []
		},
		{
			"name": "Consultar Aluno",
			"request": {
				"method": "GET",
				"header": [],
				"url": {
					"raw": "http://127.0.0.1/cadastro/api/aluno/1",
					"protocol": "http",
					"host": [
						"127",
						"0",
						"0",
						"1"
					],
					"path": [
						"cadastro",
						"api",
						"aluno",
						"1"
					]
				}
			},
			"response": []
		},
		{
			"name": "Remover Aluno",
			"request": {
				"method": "DELETE",
				"header": [],
				"url": {
					"raw": "http://127.0.0.1/cadastro/api/aluno/1",
					"protocol": "http",
					"host": [
						"127",
						"0",
						"0",
						"1"
					],
					"path": [
						"cadastro",
						"api",
						"aluno",
						"1"
					]
				}
			},
			"response": []
		},
		{
			"name": "Alterar Aluno",
			"request": {
				"method": "POST",
				"header": [],
				"body": {
					"mode": "raw",
					"raw": "{\r\n  \"id\": 1,\r\n  \"email\": \"fulano@hotmail.com\",\r\n  \"idade\": 30,\r\n  \"nome\": \"Fulano de Tal Jr.\"\r\n}",
					"options": {
						"raw": {
							"language": "json"
						}
					}
				},
				"url": {
					"raw": "http://127.0.0.1/cadastro/api/aluno",
					"protocol": "http",
					"host": [
						"127",
						"0",
						"0",
						"1"
					],
					"path": [
						"cadastro",
						"api",
						"aluno"
					]
				}
			},
			"response": []
		},
		{
			"name": "Listar Alunos",
			"request": {
				"method": "GET",
				"header": [],
				"url": {
					"raw": "http://127.0.0.1/cadastro/api/alunos",
					"protocol": "http",
					"host": [
						"127",
						"0",
						"0",
						"1"
					],
					"path": [
						"cadastro",
						"api",
						"alunos"
					]
				}
			},
			"response": []
		}
	]
}